Building and estimating a first Bayesian model
…
.panel1-post_sample-auto[

```r
## a nicer format
postSamples_df <-  postSamples %>% ggs()

*postSamples_df
```
]
 
.panel2-post_sample-auto[

```
## # A tibble: 1,500 x 4
##    Iteration Chain Parameter  value
##        <int> <int> <fct>      <dbl>
##  1         1     1 p         0.175 
##  2         2     1 p         0.138 
##  3         3     1 p         0.248 
##  4         4     1 p         0.228 
##  5         5     1 p         0.159 
##  6         6     1 p         0.153 
##  7         7     1 p         0.0850
##  8         8     1 p         0.129 
##  9         9     1 p         0.237 
## 10        10     1 p         0.183 
## # … with 1,490 more rows
```
…
